A:0,0,14,21
B:14,0,26,21
C:27,0,40,21
D:40,0,54,21
E:55,0,65,21
F:67,0,76,21
G:77,0,91,21
H:93,0,106,21
I:107,0,112,21
J:112,0,119,21
K:121,0,133,21
L:134,0,144,21
M:144,0,162,21
N:164,0,178,21
O:179,0,195,21
P:196,0,207,21
Q:207,0,224,21
R:224,0,236,21
S:236,0,246,21
T:247,0,259,21
U:260,0,273,21
V:274,0,287,21
W:287,0,308,21
X:309,0,321,21
Y:322,0,332,21
Z:333,0,344,21
a:0,28,10,49
b:12,28,23,49
c:24,28,34,49
d:34,28,46,49
e:47,28,57,49
f:58,28,65,49
g:66,28,75,49
h:77,28,88,49
i:89,28,93,49
j:93,28,99,49
k:101,28,111,49
l:112,28,115,49
m:117,28,135,49
n:136,28,147,49
o:148,28,160,49
p:162,28,173,49
q:174,28,185,49
r:187,28,194,49
s:195,28,202,49
t:203,28,211,49
u:212,28,223,49
v:223,28,234,49
w:235,28,251,49
x:252,28,262,49
y:262,28,272,49
z:273,28,282,49
 :283,28,290,49
0:0,56,11,78
1:13,56,23,78
2:24,56,35,78
3:37,56,47,78
4:48,56,60,78
5:61,56,72,78
6:73,56,84,78
7:85,56,96,78
8:97,56,108,78
9:109,56,120,78
::122,56,129,78
|:130,56,137,78
.:139,56,144,78
,:144,56,150,78
(:151,56,157,78
):158,56,164,78
[:166,56,173,78
]:167,56,179,78
;:180,56,186,78
":187,56,195,78
':196,56,201,78
<:201,56,213,78
>:213,56,224,78
/:225,56,234,78
?:235,56,245,78
-:246,56,252,78
_:253,56,265,78
+:266,56,276,78
=:277,56,288,65
\:289,56,299,78
{:310,56,316,78
}:317,56,324,78
!:2,86,6,107
@:9,86,27,107
#:29,86,40,107
$:41,86,52,107
%:53,86,69,107
^:70,86,81,107
&:82,86,98,107
*:99,86,109,107
~:110,86,122,107
`:123,86,128,107