%YAML 1.1
%TAG !u! tag:unity3d.com,2011:
--- !u!1045 &1
EditorBuildSettings:
  m_ObjectHideFlags: 0
  serializedVersion: 2
  m_Scenes:
  - enabled: 1
    path: Assets/Scenes/MainMenu.unity
    guid: 9388f6b9ba22fc745bffe97e3fbfa02f
  - enabled: 1
    path: Assets/Scenes/Visualizer.unity
    guid: c3550253791bdec4d8836ee687e9dcfb
  - enabled: 1
    path: 
    guid: 8ef4a5f665d2fb04085b77b73645fee6
  m_configObjects:
    Unity.XR.Oculus.Settings: {fileID: 11400000, guid: 20970534d2d286b42af9e9e19d54d20f, type: 2}
    Unity.XR.OpenVR.Settings: {fileID: 11400000, guid: 22c7552033e30234fbaa491ed2baf244, type: 2}
    com.unity.xr.management.loader_settings: {fileID: 11400000, guid: c1fd6ccd65ce60a4eaacdd3b9e8b9abe, type: 2}
    com.unity.xr.openxr.settings4: {fileID: 11400000, guid: f92b4120c3bba5c4685bbc01fe09ab3f, type: 2}
